{
    "c2array": true,
    "size": [
        6,
        39,
        1
    ],
    "data": [
        [
            [
                "立绘ID"
            ],
            [
                100
            ],
            [
                101
            ],
            [
                102
            ],
            [
                103
            ],
            [
                104
            ],
            [
                105
            ],
            [
                106
            ],
            [
                107
            ],
            [
                108
            ],
            [
                109
            ],
            [
                200
            ],
            [
                201
            ],
            [
                202
            ],
            [
                203
            ],
            [
                204
            ],
            [
                205
            ],
            [
                206
            ],
            [
                207
            ],
            [
                300
            ],
            [
                301
            ],
            [
                302
            ],
            [
                303
            ],
            [
                304
            ],
            [
                305
            ],
            [
                306
            ],
            [
                307
            ],
            [
                308
            ],
            [
                309
            ],
            [
                310
            ],
            [
                400
            ],
            [
                401
            ],
            [
                402
            ],
            [
                403
            ],
            [
                404
            ],
            [
                405
            ],
            [
                406
            ],
            [
                407
            ],
            [
                408
            ]
        ],
        [
            [
                "关联底模"
            ],
            [
                1
            ],
            [
                1
            ],
            [
                1
            ],
            [
                1
            ],
            [
                1
            ],
            [
                1
            ],
            [
                1
            ],
            [
                1
            ],
            [
                1
            ],
            [
                1
            ],
            [
                2
            ],
            [
                2
            ],
            [
                2
            ],
            [
                2
            ],
            [
                2
            ],
            [
                2
            ],
            [
                2
            ],
            [
                2
            ],
            [
                3
            ],
            [
                3
            ],
            [
                3
            ],
            [
                3
            ],
            [
                3
            ],
            [
                3
            ],
            [
                3
            ],
            [
                3
            ],
            [
                3
            ],
            [
                3
            ],
            [
                3
            ],
            [
                4
            ],
            [
                4
            ],
            [
                4
            ],
            [
                4
            ],
            [
                4
            ],
            [
                4
            ],
            [
                4
            ],
            [
                4
            ],
            [
                4
            ]
        ],
        [
            [
                "立绘标签"
            ],
            [
                1
            ],
            [
                1
            ],
            [
                1
            ],
            [
                2
            ],
            [
                2
            ],
            [
                2
            ],
            [
                2
            ],
            [
                3
            ],
            [
                3
            ],
            [
                3
            ],
            [
                1
            ],
            [
                1
            ],
            [
                1
            ],
            [
                2
            ],
            [
                2
            ],
            [
                3
            ],
            [
                3
            ],
            [
                3
            ],
            [
                1
            ],
            [
                1
            ],
            [
                1
            ],
            [
                1
            ],
            [
                2
            ],
            [
                2
            ],
            [
                2
            ],
            [
                2
            ],
            [
                4
            ],
            [
                4
            ],
            [
                4
            ],
            [
                1
            ],
            [
                1
            ],
            [
                3
            ],
            [
                3
            ],
            [
                3
            ],
            [
                3
            ],
            [
                4
            ],
            [
                4
            ],
            [
                4
            ]
        ],
        [
            [
                "立绘动画"
            ],
            [
                0
            ],
            [
                1
            ],
            [
                2
            ],
            [
                3
            ],
            [
                4
            ],
            [
                5
            ],
            [
                6
            ],
            [
                7
            ],
            [
                8
            ],
            [
                9
            ],
            [
                0
            ],
            [
                1
            ],
            [
                2
            ],
            [
                3
            ],
            [
                4
            ],
            [
                5
            ],
            [
                6
            ],
            [
                7
            ],
            [
                0
            ],
            [
                1
            ],
            [
                2
            ],
            [
                3
            ],
            [
                4
            ],
            [
                5
            ],
            [
                6
            ],
            [
                7
            ],
            [
                8
            ],
            [
                9
            ],
            [
                10
            ],
            [
                0
            ],
            [
                1
            ],
            [
                2
            ],
            [
                3
            ],
            [
                4
            ],
            [
                5
            ],
            [
                6
            ],
            [
                7
            ],
            [
                8
            ]
        ],
        [
            [
                "立绘品质"
            ],
            [
                1
            ],
            [
                1
            ],
            [
                1
            ],
            [
                2
            ],
            [
                2
            ],
            [
                3
            ],
            [
                2
            ],
            [
                3
            ],
            [
                4
            ],
            [
                5
            ],
            [
                1
            ],
            [
                1
            ],
            [
                1
            ],
            [
                2
            ],
            [
                2
            ],
            [
                3
            ],
            [
                2
            ],
            [
                3
            ],
            [
                4
            ],
            [
                5
            ],
            [
                1
            ],
            [
                1
            ],
            [
                1
            ],
            [
                2
            ],
            [
                2
            ],
            [
                3
            ],
            [
                2
            ],
            [
                3
            ],
            [
                4
            ],
            [
                5
            ],
            [
                1
            ],
            [
                1
            ],
            [
                1
            ],
            [
                2
            ],
            [
                2
            ],
            [
                3
            ],
            [
                2
            ],
            [
                3
            ]
        ],
        [
            [
                "立绘关卡加分"
            ],
            [
                10
            ],
            [
                10
            ],
            [
                10
            ],
            [
                20
            ],
            [
                20
            ],
            [
                30
            ],
            [
                20
            ],
            [
                30
            ],
            [
                40
            ],
            [
                50
            ],
            [
                10
            ],
            [
                10
            ],
            [
                10
            ],
            [
                20
            ],
            [
                20
            ],
            [
                30
            ],
            [
                20
            ],
            [
                30
            ],
            [
                40
            ],
            [
                50
            ],
            [
                10
            ],
            [
                10
            ],
            [
                10
            ],
            [
                20
            ],
            [
                20
            ],
            [
                30
            ],
            [
                20
            ],
            [
                30
            ],
            [
                40
            ],
            [
                50
            ],
            [
                10
            ],
            [
                10
            ],
            [
                10
            ],
            [
                20
            ],
            [
                20
            ],
            [
                30
            ],
            [
                20
            ],
            [
                30
            ]
        ]
    ]
}