{
    "c2array": true,
    "size": [
        4,
        7,
        1
    ],
    "data": [
        [
            [
                "背景ID"
            ],
            [
                1
            ],
            [
                2
            ],
            [
                3
            ],
            [
                4
            ],
            [
                5
            ],
            [
                6
            ]
        ],
        [
            [
                "背景名字"
            ],
            [
                "房间1"
            ],
            [
                "房间2"
            ],
            [
                "房间3"
            ],
            [
                "房间4"
            ],
            [
                "房间5"
            ],
            [
                "房间6"
            ]
        ],
        [
            [
                "背景动帧"
            ],
            [
                0
            ],
            [
                1
            ],
            [
                2
            ],
            [
                0
            ],
            [
                1
            ],
            [
                2
            ]
        ],
        [
            [
                "背景动画"
            ],
            [
                0
            ],
            [
                0
            ],
            [
                0
            ],
            [
                1
            ],
            [
                1
            ],
            [
                1
            ]
        ]
    ]
}