{
    "c2array": true,
    "size": [
        7,
        7,
        1
    ],
    "data": [
        [
            [
                "封面ID"
            ],
            [
                1
            ],
            [
                2
            ],
            [
                3
            ],
            [
                4
            ],
            [
                5
            ],
            [
                6
            ]
        ],
        [
            [
                "封面名字"
            ],
            [
                "封面1"
            ],
            [
                "封面2"
            ],
            [
                "封面3"
            ],
            [
                "封面4"
            ],
            [
                "封面4"
            ],
            [
                "封面4"
            ]
        ],
        [
            [
                "封面动画帧"
            ],
            [
                0
            ],
            [
                1
            ],
            [
                2
            ],
            [
                3
            ],
            [
                3
            ],
            [
                3
            ]
        ],
        [
            [
                "可创建手账页数"
            ],
            [
                10
            ],
            [
                10
            ],
            [
                10
            ],
            [
                10
            ],
            [
                10
            ],
            [
                10
            ]
        ],
        [
            [
                "对应界面底图"
            ],
            [
                0
            ],
            [
                0
            ],
            [
                0
            ],
            [
                0
            ],
            [
                0
            ],
            [
                0
            ]
        ],
        [
            [
                "底图生成位置"
            ],
            [
                1
            ],
            [
                1
            ],
            [
                1
            ],
            [
                1
            ],
            [
                1
            ],
            [
                1
            ]
        ],
        [
            [
                "该手账每页贴纸数"
            ],
            [
                10
            ],
            [
                10
            ],
            [
                10
            ],
            [
                10
            ],
            [
                10
            ],
            [
                10
            ]
        ]
    ]
}