{
    "c2array": true,
    "size": [
        6,
        236,
        1
    ],
    "data": [
        [
            [
                "剧情ID（章节ID-0-关卡ID-x00(剧情阶段)）"
            ],
            [
                101100
            ],
            [
                101101
            ],
            [
                101102
            ],
            [
                101103
            ],
            [
                101104
            ],
            [
                101105
            ],
            [
                101106
            ],
            [
                101107
            ],
            [
                101108
            ],
            [
                101109
            ],
            [
                101110
            ],
            [
                101200
            ],
            [
                101201
            ],
            [
                101202
            ],
            [
                101203
            ],
            [
                101204
            ],
            [
                101205
            ],
            [
                101206
            ],
            [
                101207
            ],
            [
                101208
            ],
            [
                101209
            ],
            [
                101210
            ],
            [
                101300
            ],
            [
                101301
            ],
            [
                101302
            ],
            [
                101303
            ],
            [
                101304
            ],
            [
                101305
            ],
            [
                101306
            ],
            [
                101307
            ],
            [
                101308
            ],
            [
                101309
            ],
            [
                102100
            ],
            [
                102101
            ],
            [
                102102
            ],
            [
                102103
            ],
            [
                102104
            ],
            [
                102105
            ],
            [
                102106
            ],
            [
                102107
            ],
            [
                102108
            ],
            [
                102109
            ],
            [
                102110
            ],
            [
                102200
            ],
            [
                102201
            ],
            [
                102202
            ],
            [
                102203
            ],
            [
                102204
            ],
            [
                102205
            ],
            [
                102300
            ],
            [
                102301
            ],
            [
                102302
            ],
            [
                102303
            ],
            [
                102304
            ],
            [
                102305
            ],
            [
                102306
            ],
            [
                102307
            ],
            [
                103100
            ],
            [
                103101
            ],
            [
                103102
            ],
            [
                103103
            ],
            [
                103104
            ],
            [
                103105
            ],
            [
                103106
            ],
            [
                103107
            ],
            [
                103200
            ],
            [
                103201
            ],
            [
                103202
            ],
            [
                103203
            ],
            [
                103204
            ],
            [
                103205
            ],
            [
                103300
            ],
            [
                103301
            ],
            [
                103302
            ],
            [
                103303
            ],
            [
                103304
            ],
            [
                103305
            ],
            [
                103306
            ],
            [
                103307
            ],
            [
                103308
            ],
            [
                103309
            ],
            [
                103310
            ],
            [
                103311
            ],
            [
                104100
            ],
            [
                104101
            ],
            [
                104102
            ],
            [
                104103
            ],
            [
                104104
            ],
            [
                104105
            ],
            [
                104106
            ],
            [
                104107
            ],
            [
                104108
            ],
            [
                104109
            ],
            [
                104110
            ],
            [
                104200
            ],
            [
                104201
            ],
            [
                104202
            ],
            [
                104300
            ],
            [
                104301
            ],
            [
                104302
            ],
            [
                104303
            ],
            [
                104304
            ],
            [
                104305
            ],
            [
                104306
            ],
            [
                104307
            ],
            [
                104308
            ],
            [
                104309
            ],
            [
                105100
            ],
            [
                105101
            ],
            [
                105102
            ],
            [
                105103
            ],
            [
                105104
            ],
            [
                105105
            ],
            [
                105106
            ],
            [
                105107
            ],
            [
                105200
            ],
            [
                105201
            ],
            [
                105202
            ],
            [
                105300
            ],
            [
                105301
            ],
            [
                105302
            ],
            [
                105303
            ],
            [
                105304
            ],
            [
                105305
            ],
            [
                105306
            ],
            [
                105307
            ],
            [
                105308
            ],
            [
                105309
            ],
            [
                105310
            ],
            [
                105311
            ],
            [
                105312
            ],
            [
                105313
            ],
            [
                105314
            ],
            [
                201100
            ],
            [
                201101
            ],
            [
                201102
            ],
            [
                201103
            ],
            [
                201104
            ],
            [
                201105
            ],
            [
                201106
            ],
            [
                201107
            ],
            [
                201108
            ],
            [
                201200
            ],
            [
                201201
            ],
            [
                201202
            ],
            [
                201203
            ],
            [
                201300
            ],
            [
                201301
            ],
            [
                201302
            ],
            [
                201303
            ],
            [
                202100
            ],
            [
                202101
            ],
            [
                202102
            ],
            [
                202103
            ],
            [
                202104
            ],
            [
                202105
            ],
            [
                202106
            ],
            [
                202107
            ],
            [
                202200
            ],
            [
                202201
            ],
            [
                202202
            ],
            [
                202203
            ],
            [
                202204
            ],
            [
                202300
            ],
            [
                202301
            ],
            [
                202302
            ],
            [
                202303
            ],
            [
                202304
            ],
            [
                203100
            ],
            [
                203101
            ],
            [
                203102
            ],
            [
                203103
            ],
            [
                203104
            ],
            [
                203105
            ],
            [
                203106
            ],
            [
                203107
            ],
            [
                203200
            ],
            [
                203201
            ],
            [
                203202
            ],
            [
                203203
            ],
            [
                203204
            ],
            [
                203205
            ],
            [
                203206
            ],
            [
                203207
            ],
            [
                203300
            ],
            [
                203301
            ],
            [
                203302
            ],
            [
                203303
            ],
            [
                203304
            ],
            [
                203305
            ],
            [
                203306
            ],
            [
                203307
            ],
            [
                204100
            ],
            [
                204101
            ],
            [
                204102
            ],
            [
                204103
            ],
            [
                204104
            ],
            [
                204105
            ],
            [
                204106
            ],
            [
                204107
            ],
            [
                204108
            ],
            [
                204109
            ],
            [
                204110
            ],
            [
                204200
            ],
            [
                204201
            ],
            [
                204202
            ],
            [
                204203
            ],
            [
                204204
            ],
            [
                204205
            ],
            [
                204300
            ],
            [
                204301
            ],
            [
                204302
            ],
            [
                204303
            ],
            [
                204304
            ],
            [
                204305
            ],
            [
                204306
            ],
            [
                204307
            ],
            [
                205100
            ],
            [
                205101
            ],
            [
                205102
            ],
            [
                205103
            ],
            [
                205104
            ],
            [
                205105
            ],
            [
                205106
            ],
            [
                205200
            ],
            [
                205201
            ],
            [
                205202
            ],
            [
                205203
            ],
            [
                205204
            ],
            [
                205205
            ],
            [
                205300
            ],
            [
                205301
            ],
            [
                205302
            ],
            [
                205303
            ],
            [
                205304
            ]
        ],
        [
            [
                "剧情文本"
            ],
            [
                "棕熊校长，最近新来的小女孩好像有些安静。"
            ],
            [
                "从人类育幼所出来的小女孩们，一般都比较文静。"
            ],
            [
                "可是她看起来也不太爱亲近她的监护者。"
            ],
            [
                "那或许是有一些更深的原因，你去找她的监护者了解下。"
            ],
            [
                "柔柔老师你找我吗？"
            ],
            [
                "你的监护女孩状态有些不好，最近上课也很容易走神。"
            ],
            [
                "是发生了什么事吗？"
            ],
            [
                "她自从从人类育幼院分配来我家后，一直很安静。"
            ],
            [
                "并且拒绝和我沟通，我认为她可能对我有些敌意！"
            ],
            [
                "这问题很严重，但是我记得在育幼院的社会素质测试，她的测试反应是良好。"
            ],
            [
                "不应该存在这么严重的问题的，看来我们要去育幼院再了解一下。"
            ],
            [
                "您好，育幼员女士，我们想来找你反应一个情况。"
            ],
            [
                "（你将女孩的情况反馈给了育幼院。）"
            ],
            [
                "那个孩子第一次和你见面时，很热情，不像你说的样子。"
            ],
            [
                "（是的，你记得那天被分配人类监护名额时，你们第一次视频聊天十分的愉快。）"
            ],
            [
                "被拒绝沟通一次后，你有没有继续想办法和她交流？"
            ],
            [
                "（摇摇头）"
            ],
            [
                "人类是一种很复杂的生物，想要了解他们，你需要十分的努力。"
            ],
            [
                "那个孩子在育幼院一直表现良好，如今你却说她对动物有敌意，何尝是你也不曾对她用心。"
            ],
            [
                "我会向政府发起调换申请，或许你不适合我们的孩子。"
            ],
            [
                "育幼员女士，这是我们的疏忽，我们会想办法了解清楚的。"
            ],
            [
                "我回去一定会好好了解的，请不要撤销我的监护权！"
            ],
            [
                "您好，育幼员女士，我们想来找你反应一个情况。"
            ],
            [
                "（你将女孩的情况反馈给了育幼院。）"
            ],
            [
                "她去你那后几乎没有沟通过吗？"
            ],
            [
                "是的，我尝试很多次和她打招呼，但她好像再刻意的无视我。"
            ],
            [
                "或许我知道一些情况，她走的那天见了一个刚被社会遣返的孩子。"
            ],
            [
                "那是她的一个很好的朋友，那个小女孩有些激进，或许说了一些不该说的话。"
            ],
            [
                "那我们能去见见那个女孩吗？"
            ],
            [
                "她已经被人类管理局接收了，离开了育幼院。"
            ],
            [
                "看来，只能从她口中获得答案了。"
            ],
            [
                "是的，或许她误解了我们，毕竟她对如今的社会并不了解。"
            ],
            [
                "柔柔老师，昨晚看视频时，她似乎对鹿山瀑布很感兴趣。"
            ],
            [
                "她看起来很憧憬，还问我鹿山瀑布离我们这远不远。"
            ],
            [
                "我想和她去看看，但那是丰水期时候的宣传片，现在鹿山瀑布没有这样景色。"
            ],
            [
                "不，或许这样你更应该带她去。"
            ],
            [
                "为什么，我怕她会失望，而且那个视频也有太多不真实的修饰，她的落差会更大。"
            ],
            [
                "孩子，你要知道我们所接触到的媒体信息，几乎都经过美化。"
            ],
            [
                "所以，更应该不带她去看了！"
            ],
            [
                "人们都憧憬美好的事物，所以很多人就会通过制造这些信息，去满足人们的追求。"
            ],
            [
                "但通样也会有人为了达成某些目的，宣扬一些有悖真实的话语，去影响某些人。"
            ],
            [
                "我们带她去只是为了告诉她，要知道真相必须自己亲自前往。当然啦，我顺便也想出去踏青，虽然是枯水期，但也因此有更多特别的景致~"
            ],
            [
                "老师……最后一句才是你的真心话吧！"
            ],
            [
                "之前看你很喜欢鹿山瀑布，下个周末我们就一起去吧。"
            ],
            [
                "（有些憧憬却又很快冷漠下来）不，我不想去。"
            ],
            [
                "为什么！我们需要好好沟通一下不是吗！"
            ],
            [
                "这样下去，我们会分开的！"
            ],
            [
                "而你也会因为社会适应性不好，可能会被重新评估！"
            ],
            [
                "（失落）或许这样才是更好的结果。"
            ],
            [
                "下周末，班里有踏青的集体活动，需要外出，咱们要提前准备一下。"
            ],
            [
                "好的，我知道了。"
            ],
            [
                "你不好奇去哪里吗？"
            ],
            [
                "（冷漠）待在这里和其他地方没有什么区别，人类总是和你们不一样的。"
            ],
            [
                "（发现女孩的情绪不好，你想着需要立马转移这个话题，这样气氛才不会那么尴尬。）"
            ],
            [
                "好啦，我们这次去的是鹿山瀑布哦，我也很久没去了，好期待呀！"
            ],
            [
                "我……（小声）也是。"
            ],
            [
                "嘻嘻！"
            ],
            [
                "我们再往前走走就可以到达景点啦！"
            ],
            [
                "两位小朋友，走慢一点，老师跟不上啦！"
            ],
            [
                "老师，你锻炼太少了，要多跟我们学学！"
            ],
            [
                "（偷偷笑）"
            ],
            [
                "（你和老师相视一笑，这一路来，能明显感到女孩的情绪十分欢快，但是你又担心小女孩看到不那么美的景色后会失望……）"
            ],
            [
                "（水流声慢慢传来，你却更加忧心忡忡，你害怕她知道你骗了她……）"
            ],
            [
                ""
            ],
            [
                "（失落）这个瀑布……"
            ],
            [
                "我在视频里看到的瀑布不是这样的！"
            ],
            [
                "你听我说，我们……"
            ],
            [
                "我不想听，我很失望，为什么所有的一切都是有所隐瞒又不真实的。"
            ],
            [
                "（女孩失落的走到一边，并拒绝和你们沟通。）"
            ],
            [
                "老师，怎么办啊？"
            ],
            [
                "她或许真的受到了很深的影响，我们还需要再努力。"
            ],
            [
                "你是想说这个瀑布为什么和你从媒体上了解到的不一样吗？"
            ],
            [
                "（点点头）我很失望，我看到的瀑布并不是这样细小的，它应该更庞大和恢弘。"
            ],
            [
                "是因为有人选择让你看到更加的美丽的瀑布，从而让你认为瀑布应该一直这么美丽。"
            ],
            [
                "（气愤）他们为什么这么做！"
            ],
            [
                "因为人们总是喜欢那些美好的或者更具吸引力的事物，而有些人就会利用这个去制作一些并不完全真实的内容。"
            ],
            [
                "但是视频并没有完全骗你，只是美丽的瀑布不存在这个季节。"
            ],
            [
                "（失落）但我不知道，我以为瀑布就应该都是这么美丽的。"
            ],
            [
                "这不是你的问题，但是今天我们知道瀑布美丽是什么样子的，也知道了瀑布不美丽时是什么样子。"
            ],
            [
                "是因为我们来到了这里对吗？"
            ],
            [
                "你很聪明，也说得很对。但是不完美的瀑布其实也没有那么遭哦，这个时候最适合在河滩里面玩水了呢！"
            ],
            [
                "（跑到小溪边）对呀，有好多小鱼啊！"
            ],
            [
                "（好奇）我也来看看！"
            ],
            [
                "同学们，今天我们来看一些特别的视频。"
            ],
            [
                "奇幻动物的视频"
            ],
            [
                "同学们可以告诉我，这些是真的假的呀？"
            ],
            [
                "是假的！世界上不会有长着翅膀在天上飞的鱼！也没有会说话的冰淇淋！"
            ],
            [
                "看来对于一些很明显的错误信息大家都能很轻易的分辨出来，我们再来看看这两张照片。"
            ],
            [
                ""
            ],
            [
                "大家可以看到这是瀑布的照片，如果是你们会更喜欢哪个瀑布呢?"
            ],
            [
                "我更喜欢右边那个，水流看起来很壮观，十分漂亮！"
            ],
            [
                "但是这两张是同一个瀑布哦，前一张是经过丰水期且修饰的美丽的瀑布，后一张是我们大部分时间下枯水期时的瀑布。"
            ],
            [
                "（班上传出孩子们失望的唏嘘）"
            ],
            [
                "看来大家都不太能接受瀑布普通的样子。"
            ],
            [
                "媒体上的人都是骗子，这也太不真实了！"
            ],
            [
                "我上次也被类似的视频骗了，我认为传播这样的信息，实在是太不复责任了！"
            ],
            [
                "（班上逐渐哄闹起来，柔柔老师想要说的话没有顺利说出口。）"
            ],
            [
                "孩子们，如今是网络的时代，我们大多都是被动的接受信息。"
            ],
            [
                "如果大家因为美丽的瀑布照片吸引，前去后却看到这个不够美丽的瀑布，你们会是什么心情呢？"
            ],
            [
                "我会很失望，因为我对那个美丽的瀑布充满了期待。"
            ],
            [
                "（你看了一眼女孩，虽然上次再瀑布玩得很高兴，但看来她还是有点失望了。）"
            ],
            [
                "老师很遗憾会给你们带来不好的感受，但是这是我们一定会遇到的一个情况。"
            ],
            [
                "总有人会选择性的让我们看到某些信息，从而隐藏某些信息，它是完全的再欺骗我们吗？"
            ],
            [
                "不是，它只是让我们看到它想让我们看到的，从而去达到某些目的。"
            ],
            [
                "是的，因为我们并没有真正的见过见过，所以我们才会相信它展现给我们看得那个美丽的景色。"
            ],
            [
                "但是，我们要怎么避免呢？我们只是小孩子，我们无法分辨。"
            ],
            [
                "所以，我的孩子们，在你们没有能力去发现某些真相的时候，你们要多去咨询大人的意见，或者老师的意见，知道了吗？"
            ],
            [
                "老师，我有些话想和你说。"
            ],
            [
                "是有什么问题吗？"
            ],
            [
                "我在离开育幼院时，我的朋友跟我说，所有的人类监护都是假的，这是动物为了驯化我们，掌控我们，才做的社会化培养。"
            ],
            [
                "（我天，现在的小孩子，都苦恼这么复杂的问题的吗……）"
            ],
            [
                "但是之前你带我去看瀑布和那堂课上说的内容，让我很烦恼，我开始对这些问题产生怀疑，难道我的朋友骗了我吗？"
            ],
            [
                "你的朋友不一定骗了你，只是他理解事物有不同的角度，老师是不是告诉过你瀑布有美丽也有不美丽的地方？"
            ],
            [
                "而动物城针对人类的社会化训练，也是有不好的地方的地方，这是事实，老师不能欺骗你。"
            ],
            [
                "那……我不喜欢这些不好的地方，我是不是不适合和动物生活在一块？"
            ],
            [
                "你还很小，你更喜欢用是或不是，去认识你所在的世界。"
            ],
            [
                "但老师还是你多去看看你的生活，你的监护动物对你的态度，这是你的选择，老师不会干涉。"
            ],
            [
                "好的老师，那我再想想吧。"
            ],
            [
                "我很开心，你能来找我咨询这个问题，你愿意思考，这正正代表着你有了解决问题的初步能力。"
            ],
            [
                "老师也说过，有些人会选择性的让你看到某些信息，但老师也告诉过，你需要亲身的去体验才能去获取答案。"
            ],
            [
                "你的监护动物对你实际上是怎么样的？学校对你又是怎么样的？"
            ],
            [
                "它对我很好，很耐心的照顾，每天陪我上下学，不让别的小动物欺负我。"
            ],
            [
                "老师和学校教会了很多育幼院没有教会我们的知识，让我看到了不一样的世界。"
            ],
            [
                "但我的朋友也说的对，学校也是在管制着我们，让我们没有自由……"
            ],
            [
                "（啊……这么小就开始考虑自由不自由了吗……还是社会层面的……）"
            ],
            [
                "你很聪明，能看到好的也有坏的地方，但你要知道社会选择向我们传输了某类信息，我们也被赋予了选择相信某类信息的能力。"
            ],
            [
                "学校对你们进行教育，一方面给与你们基础的技能和知识，一方面也是体现了社会对你们的要求，但我不认为这是在控制你们。"
            ],
            [
                "因为大环境下，这样的教育会让社会更好，社会更好了也会反馈到我们的身上，但这是一个很长远的过程，短时间内并不能看到效果。"
            ],
            [
                "所以也会让一些孩子产生不自由的感觉，但你要换个角度想，你不是被动的从学校吸收什么，而是你利用学校去获得技能，提升自己。"
            ],
            [
                "在成长环境中，你去选择看那些对你有益的事情，而不是被动的吸收那些负面的消息，用自己的眼睛去看这个世界，而不是通过别人的眼睛或嘴巴。"
            ],
            [
                "老师，你说的对，所以你对我说的话，也是选择性的告诉我某些知识。"
            ],
            [
                "你这小孩！"
            ],
            [
                "但我相信，你一定是为了我好。我以后要通过真实的和动物相处去认识这个世界，而不是轻易的相信别人的某句话。"
            ],
            [
                "最近你都在看一些视频，都在看什么呢？"
            ],
            [
                "我在看一些很酷的挑战视频，还有我最喜欢的明星的动态！"
            ],
            [
                "挑战视频？那是什么样的？"
            ],
            [
                "就是一些人做很疯狂的事情，比如在高楼上跳跃，或者吃特别辣的食物。"
            ],
            [
                "听起来有点危险啊。你觉得这些视频怎么样？"
            ],
            [
                "我觉得很有趣！这些人好勇敢，我也想试试。"
            ],
            [
                "可是，你不觉得有些视频可能不太安全吗？"
            ],
            [
                "之前老师说了为了逃脱媒体的信息布局，我们可以自己选择的去看一些内容。"
            ],
            [
                "这样我就可以了解更多信息了。"
            ],
            [
                "我还是有点担心，老师说的没错，但你总看这些不太好"
            ],
            [
                "（有些生气）我又不会真的去做，你干嘛这么紧张！"
            ],
            [
                "我只是关心你，不希望你受到不好的影响。"
            ],
            [
                "烦躁地）好了好了，我知道了，你总是这么担心"
            ],
            [
                "你愿意多了解现在的动物社会我挺开心的，只是我还有点担心。"
            ],
            [
                "没关系，我只是看，不会去做的。"
            ],
            [
                "微笑）那就好，记得安全第一。如果有有趣的内容，分享给我看看吧！"
            ],
            [
                "（开心地）好的，我会注意的！你也来看看这些有趣的视频吧。"
            ],
            [
                "莉莉，我发现你看的内容越来越相似了。你不觉得无聊吗？"
            ],
            [
                "不会啊，这些都是我喜欢的内容，很有趣。"
            ],
            [
                "但是，如果你一直看同样的东西，会不会错过其他有趣的信息呢？"
            ],
            [
                "我觉得没关系，只要是我喜欢的就好。"
            ],
            [
                "可是，世界上有很多不同的观点和信息，接触多样化的内容会让你更有见识。"
            ],
            [
                "我知道，但我觉得这些已经够了。"
            ],
            [
                "你不想尝试了解一下其他的内容吗？比如新闻、科普视频？"
            ],
            [
                "我觉得那些太无聊了，不像这些视频这么有趣。"
            ],
            [
                "但只看一种内容可能会让你的视野变得狭窄。"
            ],
            [
                "好吧，我会考虑的，但现在我还是想看这些。"
            ],
            [
                "偶尔换一些新的内容看看吧。"
            ],
            [
                "（有些生气）我已经说了，这些视频我看得很开心，你能不能别再说了？"
            ],
            [
                "（心塞，这小孩怎么这么倔……不行我要找老师帮帮我……）"
            ],
            [
                "那你愿意和我一起尝试看看吗？也许会发现一些新奇的东西。"
            ],
            [
                "（勉强）好吧，我们一起看看也不错，也许真的会有新发现。"
            ],
            [
                "（女孩和你看了一些别的视频，但总是兴趣恹恹。）"
            ],
            [
                "我有些困了，先睡觉吧。"
            ],
            [
                "（你看着女孩拿着平板回了房间，隐隐有些担心，或许要找老师帮帮你。）"
            ],
            [
                "（第二天上完自然课后，琪琪和你们聊了起来。）"
            ],
            [
                "我觉得环境保护真的很重要，我们应该多做些实际的事情。"
            ],
            [
                "可是，我看了很多视频，有些人说环境问题被夸大了，不用那么担心。"
            ],
            [
                "真的吗？我看到的报道都是说情况很严重啊。"
            ],
            [
                "那些报道可能有些夸张吧，我的视频里说的很有道理。"
            ],
            [
                "可是，你只看了一面之词，应该看看更多不同的观点。"
            ],
            [
                "我觉得这些观点都差不多，没必要。"
            ],
            [
                "这可不一定，你要多了解一下才行。"
            ],
            [
                "（今天在学校的讨论并不愉快，女孩显得心情不是很好。）"
            ],
            [
                "你今天看起来心情不好，上午的讨论让你不开心了吗？"
            ],
            [
                "为什么我发现他们和我的观点完全不一样。"
            ],
            [
                "他们觉得环境问题很严重，但我看的视频说不用那么担心。"
            ],
            [
                "也许你看的内容有些片面，试着接触不同的观点会更好。"
            ],
            [
                "可是我觉得那些视频很有道理。"
            ],
            [
                "多听听不同的声音，对你会有好处的。"
            ],
            [
                "你总是说这些，真烦人！"
            ],
            [
                "（今天在学校的讨论并不愉快，女孩显得心情不是很好。）"
            ],
            [
                "你今天看起来心情不好，上午的讨论让你不开心了吗？"
            ],
            [
                "为什么我发现他们和我的观点完全不一样。"
            ],
            [
                "可是我看到的那些视频都是这么说的，我好像错了一样，我很难受。"
            ],
            [
                "也许你看的内容有些片面，试着接触不同的观点会更好。"
            ],
            [
                "那我该怎么做呢？"
            ],
            [
                "我们可以一起去找学校老师，请她推荐一些不同的资料和观点，好吗？"
            ],
            [
                "（点头）好啊，谢谢你提醒我，我们一起去找老师吧。"
            ],
            [
                "老师，我们遇到了一些困惑，莉莉在学校讨论环境问题时发现和同学的观点完全不一样。"
            ],
            [
                "莉莉，可以告诉我具体情况吗？"
            ],
            [
                "我平时看的视频说环境问题被夸大了，但同学们说情况很严重，我不知道该相信谁。"
            ],
            [
                "可是我看到的视频都是这么说的啊，那么视频都不能证明我的观点是正确的吗？"
            ],
            [
                "而且我看了很多不同媒体的，不单单只看了一个！"
            ],
            [
                "我应该知道怎么回事了，之前老师跟你们说了媒体上会选择公布一些内容，隐瞒一些内容，去表达一些信息。"
            ],
            [
                "所以我让你们不被媒体影响，自己多去尝试选择一些视频来看，你们都做的很好。"
            ],
            [
                "但是如今媒体有一些设计，就是如果它发现你更喜欢看什么，就会给你推荐什么，这却造成了另外一种不好的问题。"
            ],
            [
                "是什么问题呢？喜欢看某类视频不是很正常吗？"
            ],
            [
                "这让你形成了信息茧房，它会使你只接触与自己观点一致的信息，逐渐形成封闭的认知环境。"
            ],
            [
                "老师之前说过，我们要学会接纳美和不美的瀑布，对于不一样的观点也应该这样。"
            ],
            [
                "那我们应该怎么办呢？"
            ],
            [
                "你需要主动接触不同的信息来源，了解多种观点，这样才能形成全面的看法。"
            ],
            [
                "有没有具体的方法呢？"
            ],
            [
                "你可以尝试阅读不同的新闻网站，参加多样的讨论，还可以看看科普书籍和纪录片。"
            ],
            [
                "可是那些好无聊啊，我不喜欢看。"
            ],
            [
                "（你和老师听了女孩的回答无奈的摇了摇头）"
            ],
            [
                "那我们应该怎么办呢？"
            ],
            [
                "这样吧，下周的自然课你们作为小组负责人，组织同学们进行一场有关环境的科普讲堂吧。"
            ],
            [
                "我们应该怎么做呢？"
            ],
            [
                "你们可以尝试阅读不同的新闻网站，参加多样的讨论，还可以看看科普书籍和纪录片。"
            ],
            [
                "同时也可以收集下网络上对于环境的不同评价，并针对此分析一下。"
            ],
            [
                "那老师呢？"
            ],
            [
                "我呀，等着你们上课就好咯~可以少备一节课啦~"
            ],
            [
                "（你和女孩异口同声的说道：这才是你的真实目的吧，老师！）"
            ],
            [
                "（这一周你和女孩组织着同学一起调查着环境的资料。）"
            ],
            [
                "没想到，在我们看不到的地方，星球正遭受着这么大的伤害。"
            ],
            [
                "（看着照片满目疮痍的海洋和陆地，你们都觉得心惊不已。）"
            ],
            [
                "原来我看到的世界并不是真正的世界……"
            ],
            [
                "我这里还找到以前的资料，你们看以前这个地方并不是这样的。"
            ],
            [
                "还有这个，你们也看看……"
            ],
            [
                "（你们分享交换着手上调查的知识，亲自感受到了世界在你们眼前慢慢展开。）"
            ],
            [
                "（你们准备好了所有资料，并在自然课上分享了你们的所见所得……）"
            ],
            [
                "（一节课过去了，却反响平平）"
            ],
            [
                "好像大家对这个不感兴趣……"
            ],
            [
                "大家并不认可我们的观念，说动物城的环境这么好，咱们在危言耸听！"
            ],
            [
                "（愤怒）一群大笨蛋！"
            ],
            [
                "（失落）我以前和他们也一样，或许他们也被一些相同的信息禁锢了认知。"
            ],
            [
                "（一节课完毕后，所有同学都受到了震撼，课后也一直议论纷纷……）"
            ],
            [
                "好开心啊！大家都认可我们的讲堂呢！"
            ],
            [
                "看来我们的努力没有白费！以后我们可以多组织这些活动，我们可不能被网络困住！"
            ],
            [
                "哈哈哈哈~那好呀，老师很赞成你们哦~"
            ],
            [
                "（不知什么时候，柔柔老师来到你们的身后，在柔柔老师的感染下，你们皆是相视一笑。）"
            ]
        ],
        [
            [
                "对话类型（1-主角 2-娃娃 3-npc 4-旁白 5-只展示图片）"
            ],
            [
                3
            ],
            [
                3
            ],
            [
                3
            ],
            [
                3
            ],
            [
                1
            ],
            [
                3
            ],
            [
                3
            ],
            [
                1
            ],
            [
                1
            ],
            [
                3
            ],
            [
                3
            ],
            [
                1
            ],
            [
                4
            ],
            [
                3
            ],
            [
                4
            ],
            [
                3
            ],
            [
                1
            ],
            [
                3
            ],
            [
                3
            ],
            [
                3
            ],
            [
                3
            ],
            [
                1
            ],
            [
                1
            ],
            [
                4
            ],
            [
                3
            ],
            [
                1
            ],
            [
                3
            ],
            [
                3
            ],
            [
                1
            ],
            [
                3
            ],
            [
                3
            ],
            [
                1
            ],
            [
                1
            ],
            [
                1
            ],
            [
                1
            ],
            [
                3
            ],
            [
                1
            ],
            [
                3
            ],
            [
                1
            ],
            [
                3
            ],
            [
                3
            ],
            [
                3
            ],
            [
                1
            ],
            [
                1
            ],
            [
                2
            ],
            [
                1
            ],
            [
                1
            ],
            [
                1
            ],
            [
                2
            ],
            [
                1
            ],
            [
                2
            ],
            [
                1
            ],
            [
                2
            ],
            [
                4
            ],
            [
                1
            ],
            [
                2
            ],
            [
                1
            ],
            [
                1
            ],
            [
                3
            ],
            [
                1
            ],
            [
                2
            ],
            [
                4
            ],
            [
                4
            ],
            [
                5
            ],
            [
                2
            ],
            [
                2
            ],
            [
                1
            ],
            [
                2
            ],
            [
                4
            ],
            [
                1
            ],
            [
                3
            ],
            [
                3
            ],
            [
                2
            ],
            [
                3
            ],
            [
                2
            ],
            [
                3
            ],
            [
                3
            ],
            [
                2
            ],
            [
                3
            ],
            [
                2
            ],
            [
                3
            ],
            [
                1
            ],
            [
                2
            ],
            [
                3
            ],
            [
                5
            ],
            [
                3
            ],
            [
                1
            ],
            [
                3
            ],
            [
                5
            ],
            [
                3
            ],
            [
                2
            ],
            [
                3
            ],
            [
                4
            ],
            [
                3
            ],
            [
                3
            ],
            [
                2
            ],
            [
                4
            ],
            [
                3
            ],
            [
                3
            ],
            [
                2
            ],
            [
                4
            ],
            [
                3
            ],
            [
                3
            ],
            [
                1
            ],
            [
                2
            ],
            [
                1
            ],
            [
                3
            ],
            [
                2
            ],
            [
                3
            ],
            [
                2
            ],
            [
                3
            ],
            [
                2
            ],
            [
                3
            ],
            [
                3
            ],
            [
                2
            ],
            [
                3
            ],
            [
                3
            ],
            [
                2
            ],
            [
                3
            ],
            [
                3
            ],
            [
                3
            ],
            [
                2
            ],
            [
                2
            ],
            [
                2
            ],
            [
                3
            ],
            [
                3
            ],
            [
                3
            ],
            [
                3
            ],
            [
                3
            ],
            [
                3
            ],
            [
                2
            ],
            [
                3
            ],
            [
                2
            ],
            [
                1
            ],
            [
                2
            ],
            [
                1
            ],
            [
                2
            ],
            [
                1
            ],
            [
                2
            ],
            [
                1
            ],
            [
                2
            ],
            [
                2
            ],
            [
                1
            ],
            [
                2
            ],
            [
                1
            ],
            [
                2
            ],
            [
                1
            ],
            [
                2
            ],
            [
                1
            ],
            [
                2
            ],
            [
                1
            ],
            [
                2
            ],
            [
                1
            ],
            [
                2
            ],
            [
                1
            ],
            [
                2
            ],
            [
                1
            ],
            [
                2
            ],
            [
                1
            ],
            [
                2
            ],
            [
                1
            ],
            [
                2
            ],
            [
                1
            ],
            [
                1
            ],
            [
                2
            ],
            [
                4
            ],
            [
                2
            ],
            [
                4
            ],
            [
                4
            ],
            [
                3
            ],
            [
                1
            ],
            [
                3
            ],
            [
                1
            ],
            [
                2
            ],
            [
                1
            ],
            [
                3
            ],
            [
                4
            ],
            [
                1
            ],
            [
                2
            ],
            [
                2
            ],
            [
                1
            ],
            [
                2
            ],
            [
                1
            ],
            [
                2
            ],
            [
                4
            ],
            [
                1
            ],
            [
                2
            ],
            [
                2
            ],
            [
                1
            ],
            [
                2
            ],
            [
                1
            ],
            [
                2
            ],
            [
                1
            ],
            [
                3
            ],
            [
                1
            ],
            [
                1
            ],
            [
                1
            ],
            [
                3
            ],
            [
                3
            ],
            [
                3
            ],
            [
                1
            ],
            [
                3
            ],
            [
                3
            ],
            [
                1
            ],
            [
                3
            ],
            [
                2
            ],
            [
                3
            ],
            [
                2
            ],
            [
                4
            ],
            [
                1
            ],
            [
                3
            ],
            [
                2
            ],
            [
                3
            ],
            [
                3
            ],
            [
                1
            ],
            [
                3
            ],
            [
                4
            ],
            [
                4
            ],
            [
                3
            ],
            [
                4
            ],
            [
                2
            ],
            [
                3
            ],
            [
                3
            ],
            [
                4
            ],
            [
                4
            ],
            [
                4
            ],
            [
                1
            ],
            [
                3
            ],
            [
                3
            ],
            [
                2
            ],
            [
                4
            ],
            [
                3
            ],
            [
                3
            ],
            [
                3
            ],
            [
                4
            ]
        ],
        [
            [
                "对话背景"
            ],
            [
                0
            ],
            [
                0
            ],
            [
                0
            ],
            [
                0
            ],
            [
                0
            ],
            [
                0
            ],
            [
                0
            ],
            [
                0
            ],
            [
                0
            ],
            [
                0
            ],
            [
                0
            ],
            [
                1
            ],
            [
                1
            ],
            [
                1
            ],
            [
                1
            ],
            [
                1
            ],
            [
                1
            ],
            [
                1
            ],
            [
                1
            ],
            [
                1
            ],
            [
                1
            ],
            [
                1
            ],
            [
                1
            ],
            [
                1
            ],
            [
                1
            ],
            [
                1
            ],
            [
                1
            ],
            [
                1
            ],
            [
                1
            ],
            [
                1
            ],
            [
                1
            ],
            [
                1
            ],
            [
                0
            ],
            [
                0
            ],
            [
                0
            ],
            [
                0
            ],
            [
                0
            ],
            [
                0
            ],
            [
                0
            ],
            [
                0
            ],
            [
                0
            ],
            [
                0
            ],
            [
                0
            ],
            [
                2
            ],
            [
                2
            ],
            [
                2
            ],
            [
                2
            ],
            [
                2
            ],
            [
                2
            ],
            [
                2
            ],
            [
                2
            ],
            [
                2
            ],
            [
                2
            ],
            [
                2
            ],
            [
                2
            ],
            [
                2
            ],
            [
                2
            ],
            [
                3
            ],
            [
                3
            ],
            [
                3
            ],
            [
                3
            ],
            [
                3
            ],
            [
                3
            ],
            [
                4
            ],
            [
                4
            ],
            [
                4
            ],
            [
                4
            ],
            [
                4
            ],
            [
                4
            ],
            [
                4
            ],
            [
                4
            ],
            [
                4
            ],
            [
                4
            ],
            [
                4
            ],
            [
                4
            ],
            [
                4
            ],
            [
                4
            ],
            [
                4
            ],
            [
                4
            ],
            [
                4
            ],
            [
                4
            ],
            [
                4
            ],
            [
                4
            ],
            [
                5
            ],
            [
                6
            ],
            [
                5
            ],
            [
                5
            ],
            [
                5
            ],
            [
                7
            ],
            [
                5
            ],
            [
                5
            ],
            [
                5
            ],
            [
                5
            ],
            [
                5
            ],
            [
                5
            ],
            [
                5
            ],
            [
                5
            ],
            [
                5
            ],
            [
                5
            ],
            [
                5
            ],
            [
                5
            ],
            [
                5
            ],
            [
                5
            ],
            [
                5
            ],
            [
                5
            ],
            [
                5
            ],
            [
                5
            ],
            [
                1
            ],
            [
                1
            ],
            [
                1
            ],
            [
                1
            ],
            [
                1
            ],
            [
                1
            ],
            [
                1
            ],
            [
                1
            ],
            [
                1
            ],
            [
                1
            ],
            [
                1
            ],
            [
                1
            ],
            [
                1
            ],
            [
                1
            ],
            [
                1
            ],
            [
                1
            ],
            [
                1
            ],
            [
                1
            ],
            [
                1
            ],
            [
                1
            ],
            [
                1
            ],
            [
                1
            ],
            [
                1
            ],
            [
                1
            ],
            [
                1
            ],
            [
                1
            ],
            [
                8
            ],
            [
                8
            ],
            [
                8
            ],
            [
                8
            ],
            [
                8
            ],
            [
                8
            ],
            [
                8
            ],
            [
                8
            ],
            [
                8
            ],
            [
                8
            ],
            [
                8
            ],
            [
                8
            ],
            [
                8
            ],
            [
                8
            ],
            [
                8
            ],
            [
                8
            ],
            [
                8
            ],
            [
                8
            ],
            [
                8
            ],
            [
                8
            ],
            [
                8
            ],
            [
                8
            ],
            [
                8
            ],
            [
                8
            ],
            [
                8
            ],
            [
                8
            ],
            [
                8
            ],
            [
                8
            ],
            [
                8
            ],
            [
                8
            ],
            [
                8
            ],
            [
                8
            ],
            [
                8
            ],
            [
                8
            ],
            [
                8
            ],
            [
                5
            ],
            [
                5
            ],
            [
                5
            ],
            [
                5
            ],
            [
                5
            ],
            [
                5
            ],
            [
                5
            ],
            [
                5
            ],
            [
                2
            ],
            [
                2
            ],
            [
                2
            ],
            [
                2
            ],
            [
                2
            ],
            [
                2
            ],
            [
                2
            ],
            [
                2
            ],
            [
                2
            ],
            [
                2
            ],
            [
                2
            ],
            [
                2
            ],
            [
                2
            ],
            [
                2
            ],
            [
                2
            ],
            [
                2
            ],
            [
                0
            ],
            [
                0
            ],
            [
                0
            ],
            [
                0
            ],
            [
                0
            ],
            [
                0
            ],
            [
                0
            ],
            [
                0
            ],
            [
                0
            ],
            [
                0
            ],
            [
                0
            ],
            [
                0
            ],
            [
                0
            ],
            [
                0
            ],
            [
                0
            ],
            [
                0
            ],
            [
                0
            ],
            [
                0
            ],
            [
                0
            ],
            [
                0
            ],
            [
                0
            ],
            [
                0
            ],
            [
                0
            ],
            [
                0
            ],
            [
                0
            ],
            [
                5
            ],
            [
                5
            ],
            [
                8
            ],
            [
                5
            ],
            [
                5
            ],
            [
                5
            ],
            [
                5
            ],
            [
                5
            ],
            [
                5
            ],
            [
                5
            ],
            [
                5
            ],
            [
                5
            ],
            [
                5
            ],
            [
                5
            ],
            [
                5
            ],
            [
                5
            ],
            [
                5
            ],
            [
                5
            ]
        ],
        [
            [
                "生成点"
            ],
            [
                4
            ],
            [
                4
            ],
            [
                4
            ],
            [
                4
            ],
            [
                4
            ],
            [
                4
            ],
            [
                4
            ],
            [
                4
            ],
            [
                4
            ],
            [
                4
            ],
            [
                4
            ],
            [
                4
            ],
            [
                4
            ],
            [
                4
            ],
            [
                4
            ],
            [
                4
            ],
            [
                4
            ],
            [
                4
            ],
            [
                4
            ],
            [
                4
            ],
            [
                4
            ],
            [
                4
            ],
            [
                4
            ],
            [
                4
            ],
            [
                4
            ],
            [
                4
            ],
            [
                4
            ],
            [
                4
            ],
            [
                4
            ],
            [
                4
            ],
            [
                4
            ],
            [
                4
            ],
            [
                4
            ],
            [
                4
            ],
            [
                4
            ],
            [
                4
            ],
            [
                4
            ],
            [
                4
            ],
            [
                4
            ],
            [
                4
            ],
            [
                4
            ],
            [
                4
            ],
            [
                4
            ],
            [
                4
            ],
            [
                4
            ],
            [
                4
            ],
            [
                4
            ],
            [
                4
            ],
            [
                4
            ],
            [
                4
            ],
            [
                4
            ],
            [
                4
            ],
            [
                4
            ],
            [
                4
            ],
            [
                4
            ],
            [
                4
            ],
            [
                4
            ],
            [
                4
            ],
            [
                4
            ],
            [
                4
            ],
            [
                4
            ],
            [
                4
            ],
            [
                4
            ],
            [
                4
            ],
            [
                4
            ],
            [
                4
            ],
            [
                4
            ],
            [
                4
            ],
            [
                4
            ],
            [
                4
            ],
            [
                4
            ],
            [
                4
            ],
            [
                4
            ],
            [
                4
            ],
            [
                4
            ],
            [
                4
            ],
            [
                4
            ],
            [
                4
            ],
            [
                4
            ],
            [
                4
            ],
            [
                4
            ],
            [
                4
            ],
            [
                4
            ],
            [
                4
            ],
            [
                4
            ],
            [
                4
            ],
            [
                4
            ],
            [
                4
            ],
            [
                5
            ],
            [
                4
            ],
            [
                4
            ],
            [
                4
            ],
            [
                4
            ],
            [
                4
            ],
            [
                4
            ],
            [
                4
            ],
            [
                5
            ],
            [
                4
            ],
            [
                4
            ],
            [
                4
            ],
            [
                4
            ],
            [
                4
            ],
            [
                4
            ],
            [
                4
            ],
            [
                4
            ],
            [
                4
            ],
            [
                4
            ],
            [
                4
            ],
            [
                4
            ],
            [
                4
            ],
            [
                4
            ],
            [
                4
            ],
            [
                4
            ],
            [
                4
            ],
            [
                4
            ],
            [
                4
            ],
            [
                4
            ],
            [
                4
            ],
            [
                4
            ],
            [
                4
            ],
            [
                4
            ],
            [
                4
            ],
            [
                4
            ],
            [
                4
            ],
            [
                4
            ],
            [
                4
            ],
            [
                4
            ],
            [
                4
            ],
            [
                4
            ],
            [
                4
            ],
            [
                4
            ],
            [
                4
            ],
            [
                4
            ],
            [
                4
            ],
            [
                4
            ],
            [
                4
            ],
            [
                4
            ],
            [
                4
            ],
            [
                4
            ],
            [
                4
            ],
            [
                4
            ],
            [
                4
            ],
            [
                4
            ],
            [
                4
            ],
            [
                4
            ],
            [
                4
            ],
            [
                4
            ],
            [
                4
            ],
            [
                4
            ],
            [
                4
            ],
            [
                4
            ],
            [
                4
            ],
            [
                4
            ],
            [
                4
            ],
            [
                4
            ],
            [
                4
            ],
            [
                4
            ],
            [
                4
            ],
            [
                4
            ],
            [
                4
            ],
            [
                4
            ],
            [
                4
            ],
            [
                4
            ],
            [
                4
            ],
            [
                4
            ],
            [
                4
            ],
            [
                4
            ],
            [
                4
            ],
            [
                4
            ],
            [
                4
            ],
            [
                4
            ],
            [
                4
            ],
            [
                4
            ],
            [
                4
            ],
            [
                4
            ],
            [
                4
            ],
            [
                4
            ],
            [
                4
            ],
            [
                4
            ],
            [
                4
            ],
            [
                4
            ],
            [
                4
            ],
            [
                4
            ],
            [
                4
            ],
            [
                4
            ],
            [
                4
            ],
            [
                4
            ],
            [
                4
            ],
            [
                4
            ],
            [
                4
            ],
            [
                4
            ],
            [
                4
            ],
            [
                4
            ],
            [
                4
            ],
            [
                4
            ],
            [
                4
            ],
            [
                4
            ],
            [
                4
            ],
            [
                4
            ],
            [
                4
            ],
            [
                4
            ],
            [
                4
            ],
            [
                4
            ],
            [
                4
            ],
            [
                4
            ],
            [
                4
            ],
            [
                4
            ],
            [
                4
            ],
            [
                4
            ],
            [
                4
            ],
            [
                4
            ],
            [
                4
            ],
            [
                4
            ],
            [
                4
            ],
            [
                4
            ],
            [
                4
            ],
            [
                4
            ],
            [
                4
            ],
            [
                4
            ],
            [
                4
            ],
            [
                4
            ],
            [
                4
            ],
            [
                4
            ],
            [
                4
            ],
            [
                4
            ],
            [
                4
            ],
            [
                4
            ],
            [
                4
            ],
            [
                4
            ],
            [
                4
            ],
            [
                4
            ],
            [
                4
            ],
            [
                4
            ],
            [
                4
            ],
            [
                4
            ]
        ],
        [
            [
                "角色ID（只有npc用得到）"
            ],
            [
                1
            ],
            [
                3
            ],
            [
                1
            ],
            [
                3
            ],
            [
                ""
            ],
            [
                1
            ],
            [
                1
            ],
            [
                ""
            ],
            [
                ""
            ],
            [
                1
            ],
            [
                1
            ],
            [
                ""
            ],
            [
                ""
            ],
            [
                4
            ],
            [
                ""
            ],
            [
                4
            ],
            [
                ""
            ],
            [
                4
            ],
            [
                4
            ],
            [
                4
            ],
            [
                1
            ],
            [
                ""
            ],
            [
                ""
            ],
            [
                ""
            ],
            [
                4
            ],
            [
                ""
            ],
            [
                4
            ],
            [
                4
            ],
            [
                ""
            ],
            [
                4
            ],
            [
                1
            ],
            [
                ""
            ],
            [
                ""
            ],
            [
                ""
            ],
            [
                ""
            ],
            [
                1
            ],
            [
                ""
            ],
            [
                1
            ],
            [
                ""
            ],
            [
                1
            ],
            [
                1
            ],
            [
                1
            ],
            [
                ""
            ],
            [
                ""
            ],
            [
                ""
            ],
            [
                ""
            ],
            [
                ""
            ],
            [
                ""
            ],
            [
                ""
            ],
            [
                ""
            ],
            [
                ""
            ],
            [
                ""
            ],
            [
                ""
            ],
            [
                ""
            ],
            [
                ""
            ],
            [
                ""
            ],
            [
                ""
            ],
            [
                ""
            ],
            [
                1
            ],
            [
                ""
            ],
            [
                ""
            ],
            [
                ""
            ],
            [
                ""
            ],
            [
                ""
            ],
            [
                ""
            ],
            [
                ""
            ],
            [
                ""
            ],
            [
                ""
            ],
            [
                ""
            ],
            [
                ""
            ],
            [
                1
            ],
            [
                1
            ],
            [
                ""
            ],
            [
                1
            ],
            [
                ""
            ],
            [
                1
            ],
            [
                1
            ],
            [
                ""
            ],
            [
                1
            ],
            [
                ""
            ],
            [
                1
            ],
            [
                ""
            ],
            [
                ""
            ],
            [
                1
            ],
            [
                ""
            ],
            [
                1
            ],
            [
                ""
            ],
            [
                1
            ],
            [
                ""
            ],
            [
                1
            ],
            [
                ""
            ],
            [
                1
            ],
            [
                ""
            ],
            [
                1
            ],
            [
                2
            ],
            [
                ""
            ],
            [
                ""
            ],
            [
                1
            ],
            [
                1
            ],
            [
                ""
            ],
            [
                ""
            ],
            [
                1
            ],
            [
                1
            ],
            [
                ""
            ],
            [
                ""
            ],
            [
                ""
            ],
            [
                1
            ],
            [
                ""
            ],
            [
                1
            ],
            [
                ""
            ],
            [
                1
            ],
            [
                ""
            ],
            [
                1
            ],
            [
                1
            ],
            [
                ""
            ],
            [
                1
            ],
            [
                1
            ],
            [
                ""
            ],
            [
                1
            ],
            [
                1
            ],
            [
                1
            ],
            [
                ""
            ],
            [
                ""
            ],
            [
                ""
            ],
            [
                1
            ],
            [
                1
            ],
            [
                1
            ],
            [
                1
            ],
            [
                1
            ],
            [
                1
            ],
            [
                ""
            ],
            [
                1
            ],
            [
                ""
            ],
            [
                ""
            ],
            [
                ""
            ],
            [
                ""
            ],
            [
                ""
            ],
            [
                ""
            ],
            [
                ""
            ],
            [
                ""
            ],
            [
                ""
            ],
            [
                ""
            ],
            [
                ""
            ],
            [
                ""
            ],
            [
                ""
            ],
            [
                ""
            ],
            [
                ""
            ],
            [
                ""
            ],
            [
                ""
            ],
            [
                ""
            ],
            [
                ""
            ],
            [
                ""
            ],
            [
                ""
            ],
            [
                ""
            ],
            [
                ""
            ],
            [
                ""
            ],
            [
                ""
            ],
            [
                ""
            ],
            [
                ""
            ],
            [
                ""
            ],
            [
                ""
            ],
            [
                ""
            ],
            [
                ""
            ],
            [
                ""
            ],
            [
                ""
            ],
            [
                ""
            ],
            [
                ""
            ],
            [
                ""
            ],
            [
                ""
            ],
            [
                2
            ],
            [
                ""
            ],
            [
                2
            ],
            [
                ""
            ],
            [
                ""
            ],
            [
                ""
            ],
            [
                2
            ],
            [
                ""
            ],
            [
                ""
            ],
            [
                ""
            ],
            [
                ""
            ],
            [
                ""
            ],
            [
                ""
            ],
            [
                ""
            ],
            [
                ""
            ],
            [
                ""
            ],
            [
                ""
            ],
            [
                ""
            ],
            [
                ""
            ],
            [
                ""
            ],
            [
                ""
            ],
            [
                ""
            ],
            [
                ""
            ],
            [
                ""
            ],
            [
                1
            ],
            [
                ""
            ],
            [
                ""
            ],
            [
                ""
            ],
            [
                1
            ],
            [
                1
            ],
            [
                1
            ],
            [
                1
            ],
            [
                1
            ],
            [
                1
            ],
            [
                ""
            ],
            [
                1
            ],
            [
                ""
            ],
            [
                1
            ],
            [
                ""
            ],
            [
                ""
            ],
            [
                ""
            ],
            [
                1
            ],
            [
                ""
            ],
            [
                1
            ],
            [
                1
            ],
            [
                ""
            ],
            [
                ""
            ],
            [
                ""
            ],
            [
                ""
            ],
            [
                2
            ],
            [
                ""
            ],
            [
                ""
            ],
            [
                5
            ],
            [
                2
            ],
            [
                ""
            ],
            [
                ""
            ],
            [
                ""
            ],
            [
                ""
            ],
            [
                2
            ],
            [
                5
            ],
            [
                ""
            ],
            [
                ""
            ],
            [
                2
            ],
            [
                5
            ],
            [
                1
            ],
            [
                ""
            ]
        ]
    ]
}